Chapter 8 CATA data (Check-All-That-Apply) | Data Analysis in R for Sensory and Consumer Science
…
tb_cochran <- beercata %>% 
  gather(attrib, val, S_Flowers:S_Vinous) %>% 
  group_by(attrib) %>%
  do(cochran.qtest(val ~ Beer | Consumer.ID,
                   data = .) %>% tidy)

tb_cochran %>% 
  arrange(p.value) 

## # A tibble: 27 × 5
## # Groups:   attrib [27]
##    attrib         statistic    df  p.value method          
##    <chr>              <dbl> <dbl>    <dbl> <chr>           
##  1 S_Beans            114.      5 7.19e-23 Cochran's Q test
##  2 S_Caramel          108.      5 1.08e-21 Cochran's Q test
##  3 S_Flowers           63.3     5 2.58e-12 Cochran's Q test
##  4 S_Aromatic          45.8     5 9.90e- 9 Cochran's Q test
##  5 S_Sweet             36.3     5 8.24e- 7 Cochran's Q test
##  6 S_Warming           35.9     5 1.01e- 6 Cochran's Q test
##  7 S_Smoked            33.9     5 2.47e- 6 Cochran's Q test
##  8 S_Liquor            33.9     5 2.55e- 6 Cochran's Q test
##  9 S_Citrus fruit      29.4     5 1.96e- 5 Cochran's Q test
## 10 S_Dried fruit       26.0     5 8.81e- 5 Cochran's Q test
## # … with 17 more rows
…
