Chapter 15 CATA and Hedonics | Data Analysis in R for Sensory and Consumer Science
…
This table has both main effect of the beer and cata-attribute as well their interaction.

This print out shows the attributes related to liking - overall.

tb %>% 
  filter(term=='factor(val)') %>% 
  arrange(p.value)

## # A tibble: 27 × 8
## # Groups:   cata [27]
##    cata              term        sumsq meansq NumDF DenDF statistic  p.value
##    <chr>             <chr>       <dbl>  <dbl> <int> <dbl>     <dbl>    <dbl>
##  1 S_Refreshing      factor(val) 316.   316.      1  902.    142.   1.70e-30
##  2 S_Sour            factor(val) 129.   129.      1  905.     51.2  1.73e-12
##  3 S_Caramel         factor(val)  23.6   23.6     1  899.      8.92 2.90e- 3
##  4 S_Herbs           factor(val)  23.3   23.3     1  905.      8.84 3.02e- 3
##  5 S_Sweet           factor(val)  21.8   21.8     1  897.      8.22 4.25e- 3
##  6 S_Regional spices factor(val)  19.4   19.4     1  903.      7.43 6.54e- 3
##  7 S_Sparkling       factor(val)  19.3   19.3     1  865.      7.33 6.90e- 3
##  8 S_Bitter          factor(val)  17.9   17.9     1  907.      6.76 9.45e- 3
##  9 S_Dessert spices  factor(val)  16.5   16.5     1  908.      6.28 1.24e- 2
## 10 S_Liquor          factor(val)  16.0   16.0     1  908.      6.00 1.45e- 2
## # ℹ 17 more rows
…
